<?xml version="1.0" standalone="no"?>
<!DOCTYPE svg PUBLIC "-//W3C//DTD SVG 1.1//EN" "http://www.w3.org/Graphics/SVG/1.1/DTD/svg11.dtd">
<svg xmlns="http://www.w3.org/2000/svg">
<metadata>Copyright (C) 2017 by original authors @ fontello.com</metadata>
<defs>
<font id="fontello" horiz-adv-x="1000" >
<font-face font-family="fontello" font-weight="400" font-stretch="normal" units-per-em="1000" ascent="850" descent="-150" />
<missing-glyph horiz-adv-x="1000" />
<glyph glyph-name="fontello-fire" unicode="&#xe800;" d="M7 238q10 41 50 131t44 146q39-72 45-145 148 184 154 428 10-6 25-17t58-45 74-74 61-96 34-118q15 36 19 79t-9 80q15-12 41-39t56-75 56-99 31-118-9-127-72-127-152-120q64 129 25 278t-154 229q10-43-11-141t-65-150q7 63 4 102t-12 59l-10 17q-12-70-60-140-26-38-39-69t-9-80 30-105q-135 76-181 154t-24 182z" horiz-adv-x="748" />

<glyph glyph-name="fontello-gauge" unicode="&#xe801;" d="M0 188q0 207 147 354t353 146 354-146 146-354q0-92-31-176l-137 0q43 82 43 176 0 154-109 265t-266 110-266-110-109-265q0-94 43-176l-137 0q-31 84-31 176z m250 180q0 25 19 44t44 18 43-18 19-44-19-44-43-19-44 19-19 44z m188 60q0 26 18 44t44 19 44-19 19-44-19-44-44-18-44 18-18 44z m13-416l0 49 49 246 49-246 0-49-98 0z m174 356q0 25 19 44t44 18 43-18 19-44-19-44-43-19-44 19-19 44z" horiz-adv-x="1000" />

<glyph glyph-name="fontello-cernbox-dark" unicode="&#xe802;" d="M277 229c-74 0-133 137-133 311s59 310 133 310 134-136 134-310-59-311-134-311z m0 605c-63 0-117-135-117-294s54-295 117-295c64 0 118 135 118 295s-54 294-118 294z m-176-488c-46 0-78 13-92 39-38 65 51 184 202 270 85 49 176 79 243 79 46 0 78-14 92-40 19-32 7-78-33-129-38-50-98-100-169-141-85-49-176-78-243-78z m353 372c-64 0-152-29-235-76-138-80-228-194-197-249 15-26 51-31 79-31 64 0 152 28 235 76 69 40 128 88 165 136 35 46 46 87 32 113-15 25-51 31-79 31z m0-372l0 0c-67 0-158 29-243 78-71 41-131 91-169 141-40 51-52 97-33 129 14 26 46 40 92 40 67 0 158-30 243-79 151-86 240-205 202-270-14-26-46-39-92-39z m-353 372c-28 0-64-6-79-31-14-26-3-67 32-113 37-48 96-96 165-136 83-48 171-76 235-76h0c28 0 64 5 79 31 31 55-59 169-197 249-83 47-171 76-235 76z m171-180c-2 0-3 0-4 1l-117 67c-2 2-4 5-3 7 0 3 1 6 4 7l126 68c2 1 5 1 7 0l113-68c2-1 4-4 4-7 0-2-2-5-4-6l-123-68c-1-1-2-1-3-1z m-101 75l101-58 106 59-97 58-110-59z m682-174c-19-8-38-12-58-12-32 0-58 11-77 32-20 21-30 48-30 82 0 38 11 68 32 90 22 23 49 34 82 34 18 0 35-3 51-8v-17c-16 7-33 11-51 11-29 0-53-10-71-30-18-19-27-45-27-78 0-31 9-56 26-74 17-18 39-27 66-27 21 0 40 4 57 12v-15z m51-8v230h107v-14h-91v-93h85v-14h-85v-94h97v-15h-113z m282 0l-31 67c-6 14-12 24-19 28-6 5-14 8-23 8h-29v-103h-16v230h64c20 0 36-5 48-16 12-11 17-26 17-44 0-16-4-30-14-41-9-11-23-19-40-22v0c9-4 18-15 27-34l34-73h-18z m-102 216v-99h40c17 0 31 5 42 14 10 9 15 22 15 38 0 14-5 26-14 34-9 8-23 13-40 13h-43z m329-216l-137 186c-2 4-5 8-7 11l-2 3h-1c0-2 1-6 1-10v-190h-16v230h12l136-184c3-4 6-9 10-15h0c0 8 0 14 0 19v180h16v-230h-12z m71 0v230h66c20 0 35-5 47-14 12-10 17-23 17-38 0-14-3-25-10-35-7-9-17-16-29-20v-1c15-1 28-7 37-17 9-10 14-23 14-39 0-19-7-35-21-48-14-12-32-18-54-18h-67z m27 206v-75h28c15 0 26 4 35 11s12 17 12 30c0 23-14 34-44 34h-31z m0-99v-83h37c16 0 28 4 37 12 8 7 13 17 13 31 0 27-19 40-56 40h-31z m227-111c-25 0-44 8-58 23-15 16-22 36-22 61 0 28 7 49 22 65 16 15 36 23 62 23 24 0 43-7 57-22 14-15 21-36 21-63 0-26-8-47-23-63-15-16-34-24-59-24z m2 150c-17 0-31-6-41-17-9-12-14-28-14-48 0-19 5-35 15-46 10-11 23-17 40-17 17 0 30 6 39 17 9 11 14 27 14 47 0 20-5 36-14 47-9 12-22 17-39 17z m242 18l-56-83 55-81h-31l-32 53c-2 4-5 8-8 13h0c-1-1-3-5-8-13l-33-53h-30l56 81-54 83h31l32-56c2-4 4-8 7-13h0l41 69h30z" horiz-adv-x="2110" />

<glyph glyph-name="fontello-asterisk" unicode="&#xe803;" d="M0 395l57 176 351-116 0 370 184 0 0-370 351 116 57-176-352-113 217-299-148-108-217 299-217-299-148 108 217 299z" horiz-adv-x="1000" />

<glyph glyph-name="fontello-cernbox-abstract" unicode="&#xe804;" d="M391-25c-105 0-188 193-188 438 0 245 83 437 188 437s188-192 188-437c0-245-83-438-188-438z m0 853c-90 0-165-190-165-415s75-415 165-415c90 0 166 190 166 415s-76 415-166 415z m-248-688c-65 0-110 19-131 55-53 91 73 258 285 381 120 69 248 110 342 110 65 0 110-19 131-55 26-45 10-110-47-183-54-70-138-141-238-198-120-69-248-110-342-110z m496 524c-90 0-214-41-330-108-195-112-322-272-278-350 21-36 73-44 112-44 90 0 214 40 331 107 97 56 179 125 232 192 49 65 66 122 45 159-21 36-72 44-112 44z m0-524h0c-94 0-222 41-342 110-100 57-184 128-238 198-56 73-73 138-47 183 21 36 66 55 131 55 94 0 222-41 342-110 212-123 338-290 285-381-21-36-66-55-131-55z m-496 524c-39 0-91-8-112-44-20-37-4-94 45-159 53-67 135-136 233-192 116-67 240-107 330-107h0c40 0 91 8 112 44 44 78-82 238-277 350-117 67-241 108-331 108z m240-254c-2 0-4 1-6 2l-164 95c-3 2-5 6-5 10 0 4 2 7 6 9l177 96c4 2 8 1 11-1l159-95c3-2 5-6 5-9 0-4-2-8-5-10l-173-95c-2-1-4-2-5-2z m-141 106l141-82 150 83-137 82-154-83z" horiz-adv-x="908" />

<glyph glyph-name="fontello-gitter" unicode="&#xe805;" d="M354 683h84v-833h-84v833z m292 0v-833h-83v833h83z m-500 167h83v-625h-83v625z m625-167h83v-458h-83v458z" horiz-adv-x="1000" />

<glyph glyph-name="fontello-jenkins" unicode="&#xe806;" d="M120-150h-41c-1 3-2 5-3 8-9 28-25 62-29 90-6 41 33 43 58 61 38 28 68 43 109 68 12 7 49 26 53 34 9 17-14 41-20 54-9 21-14 39-16 60-34 6-60 26-77 49-26 39-44 110-21 164 1 5 10 13 11 20 3 13-4 30-5 43-2 71 12 132 60 153 19 77 88 102 153 140 24 15 51 24 79 34 98 36 251 30 333-33 35-26 90-82 110-122 53-107 49-285 12-414-5-18-12-43-22-64-7-15-29-44-26-57 3-13 50-49 60-58 18-17 52-41 55-62 3-24-10-56-17-79-9-30-18-60-27-88h-789z m462 148c-22 12-56 26-86 31-36 7-32-49-31-83 1-27 15-55 21-73 3-8 4-17 11-18 12-3 54 13 66 20 25 13 44 35 65 49 1 7 1 14 1 21-12 6-26 11-45 12 13 6 31 6 43 14l1 8c-21 1-29 10-43 18z m311-123c8 26 15 51 19 73 3 12 9 38 8 49-3 19-29 34-42 45-24 22-40 41-65 62-10-16-33-26-41-38 60 28 71-110 48-154 3-14 16-19 21-31l-4-7h54c1 0 1 0 2 0z m-276 1c-2 3-5 5-7 8l-12-8h19z m115 0c0 8 1 17 1 25-22-2-34 20-50 22-13 1-25-15-42-9-4-4-8-9-12-13 7-7 12-15 18-24h34c0 7 5 12 12 12 7 0 12-5 12-11h28z m88 0c-13 20-39 37-70 23l-1-23h71z m-354 0l-5 14c-9 30-15 53-17 70-38 18-78 36-110 59-7 5-47 57-52 55-72-28-140-78-200-125 10-23 20-47 29-72h354z m344 88c-1 21-7 65-20 72-28 17-77-32-98-39 2-6 6-11 7-20 12 3 27 1 37-4-12-1-26-1-34-7-3-8 0-20-1-32 28-8 62-12 99-13 7 9 9 27 9 45z m-170 15c-2-16 2-21 5-40 52-16 43 73-6 40z m-275 59c-19-19 53-46 76-47 0 12 7 24 5 32-27 5-62 2-81 15z m232-9c0-2-3-2-3-3 24-19 42-23 75-21 15 11 28 23 44 33-36-3-81-25-116-9z m142 738c-66 38-181 67-253 31-57-29-136-77-162-137 25-59-7-112-10-172 0-31 15-59 17-93-9-14-35-16-53-15-6 30-17 65-48 68-44 5-77-32-79-70-2-45 35-120 87-115 21 2 26 23 48 23 12-24-19-31-22-48-1-5 2-21 4-30 10-39 31-90 52-120 26-37 79-43 135-47 10 22 46 20 71 14-29 12-56 40-79 64-25 28-51 59-52 95 48-67 87-125 175-154 66-22 144 10 194 46 22 15 34 39 49 60 56 81 83 196 77 308-3 46-3 93-18 123-16 33-71 61-103 33-7 32 26 51 64 40-27 35-56 77-94 99z m-173-538c26-64 113-56 188-55-4-8-11-18-20-21-23-10-89-17-122 0-21 12-34 37-46 51-6 8-33 26 0 26z m7 37c37-20 105-22 155-20 3-11 3-25 3-38-65-4-141 12-158 58z m278 24c-20-37-48-79-106-80-1 12-2 30 0 37 45 5 72 27 106 43z m-27 28c-43-28-90-57-159-51-15 13-21 42-6 61 7-13 2-37 23-40 40-7 85 24 114 35 18 29-2 40-17 59-33 39-77 88-75 147 13 9 14-15 16-19 17-40 59-91 91-125 7-9 20-16 21-22 4-16-11-36-9-46z m-560 28c-13 8-16 41-32 42-22 1-18-44-18-70-16 14-18 57-7 79-13 6-19-7-26-12 9 66 98 31 83-40z m-68 254c-28-31-22-90-19-132 52 32 121-3 120-59 25 1 10 31 5 51-14 64 25 133 2 191-44-3-81-21-108-50z m380-46c13-23 17-48 35-65 9-8 24-18 17-40-2-5-16-16-23-19-29-8-94-1-72 34 23-1 55-15 72 2-13 22-37 63-28 88z m259 1h3c13-28 25-58 41-82-11-27-85-50-84-3 16 7 44 2 58 11-8 23-20 42-18 73z m-289 67c-59 14-89-25-107-65-16 4-9 26-5 37 10 29 53 68 88 63 15-3 35-16 24-35z m-144 162c-65-19-149-66-175-124 20 3 35 13 55 14 8 1 18-3 27 0 18 4 32 44 46 59 13 14 28 20 39 33 7 4 17 3 18 14-4 3-7 6-10 4z" horiz-adv-x="1000" />

<glyph glyph-name="fontello-jira" unicode="&#xe807;" d="M839 585c-4 3-7 4-12 4-2 0-4-1-7-1-40-16-81-28-119-36-8-2-14-8-17-14-27-75-97-147-170-222-3-2-7-6-14-6-6 0-11 3-14 6-73 75-143 146-170 222-3 6-9 12-17 14-37 9-79 21-119 36-3 2-5 2-7 2-4 0-8-2-12-4-5-4-7-11-7-17 6-62 31-123 76-187 42-60 96-116 149-170 97-99 189-192 197-301 1-10 9-17 19-17h114c5 0 10 2 14 6 3 3 5 8 5 13-4 73-31 146-84 223-11 16-23 32-35 47-5 6-3 14 1 18l11 12c53 54 108 110 149 170 45 63 70 124 76 187 0 5-2 11-7 15z m-462-457c-3 2-6 5-13 5-8 0-14-6-15-9-48-73-73-142-76-211 0-5 1-11 5-14 3-4 8-6 13-6h114c10 0 18 8 19 18 3 33 13 66 32 102 7 12 2 23-2 28-19 25-42 51-77 87z m187 404c9 0 17-7 17-18 0-3-1-5-2-7-5-13-26-58-66-98-5-4-10-4-14-4-3 0-8 0-13 5-40 39-61 84-66 97-1 2-2 4-2 7 0 10 8 18 17 18 8 0 29-2 65-2s57 2 64 2z m-261 221c-33 0-60-27-60-60 0-34 27-60 60-60s60 26 60 60c0 33-27 60-60 60z m394 0c-33 0-60-27-60-60 0-34 27-60 60-60 33 0 60 26 60 60 0 33-27 60-60 60z m-197 54c-33 0-60-27-60-60s27-60 60-60 60 27 60 60c0 34-27 60-60 60z" horiz-adv-x="1000" />
</font>
</defs>
</svg>